%YAML 1.1
%TAG !u! tag:unity3d.com,2011:
--- !u!1 &4729736443651750305
GameObject:
  m_ObjectHideFlags: 0
  m_CorrespondingSourceObject: {fileID: 0}
  m_PrefabInstance: {fileID: 0}
  m_PrefabAsset: {fileID: 0}
  serializedVersion: 6
  m_Component:
  - component: {fileID: 9205595206518863113}
  - component: {fileID: -4074600004938967056}
  m_Layer: 0
  m_Name: LeanSwipeUp
  m_TagString: Untagged
  m_Icon: {fileID: 0}
  m_NavMeshLayer: 0
  m_StaticEditorFlags: 0
  m_IsActive: 1
--- !u!4 &9205595206518863113
Transform:
  m_ObjectHideFlags: 0
  m_CorrespondingSourceObject: {fileID: 0}
  m_PrefabInstance: {fileID: 0}
  m_PrefabAsset: {fileID: 0}
  m_GameObject: {fileID: 4729736443651750305}
  m_LocalRotation: {x: 0, y: 0, z: 0, w: 1}
  m_LocalPosition: {x: 3.1976862, y: 1.6571915, z: -0.40613794}
  m_LocalScale: {x: 1, y: 1, z: 1}
  m_Children: []
  m_Father: {fileID: 0}
  m_RootOrder: 0
  m_LocalEulerAnglesHint: {x: 0, y: 0, z: 0}
--- !u!114 &-4074600004938967056
MonoBehaviour:
  m_ObjectHideFlags: 0
  m_CorrespondingSourceObject: {fileID: 0}
  m_PrefabInstance: {fileID: 0}
  m_PrefabAsset: {fileID: 0}
  m_GameObject: {fileID: 4729736443651750305}
  m_Enabled: 1
  m_EditorHideFlags: 0
  m_Script: {fileID: 11500000, guid: a2b29544581cbff48a74923442363fb0, type: 3}
  m_Name: 
  m_EditorClassIdentifier: 
  requiredAngle: 0
  requiredArc: -1
  onFinger:
    m_PersistentCalls:
      m_Calls: []
  modify: 0
  coordinate: 0
  multiplier: 1
  onDelta:
    m_PersistentCalls:
      m_Calls: []
  onDistance:
    m_PersistentCalls:
      m_Calls: []
  ScreenDepth:
    Conversion: 1
    Camera: {fileID: 0}
    Object: {fileID: 0}
    Layers:
      serializedVersion: 2
      m_Bits: 4294967291
    Distance: 0
  onWorldFrom:
    m_PersistentCalls:
      m_Calls: []
  onWorldTo:
    m_PersistentCalls:
      m_Calls: []
  onWorldDelta:
    m_PersistentCalls:
      m_Calls: []
  onWorldFromTo:
    m_PersistentCalls:
      m_Calls: []
  ignoreStartedOverGui: 1
  ignoreIsOverGui: 0
  requiredSelectable: {fileID: 0}
